-- Merging decision tree log ---
manifest
ADDED from /Users/saikunchala/Desktop/BrandPulse/BrandPulse/android/app/src/main/AndroidManifest.xml:1:1-30:12
INJECTED from /Users/saikunchala/Desktop/BrandPulse/BrandPulse/android/app/src/main/AndroidManifest.xml:1:1-30:12
INJECTED from /Users/saikunchala/Desktop/BrandPulse/BrandPulse/android/app/src/main/AndroidManifest.xml:1:1-30:12
INJECTED from /Users/saikunchala/Desktop/BrandPulse/BrandPulse/android/app/src/main/AndroidManifest.xml:1:1-30:12
MERGED from /Users/saikunchala/Desktop/BrandPulse/BrandPulse/android/app/src/main/AndroidManifest.xml:1:1-30:12
MERGED from [com.facebook.flipper:flipper:0.99.0] /Users/saikunchala/.gradle/caches/transforms-3/2f5725507f1929c6ddf8255f0bef77bd/transformed/jetified-flipper-0.99.0/AndroidManifest.xml:8:1-18:12
MERGED from [com.facebook.flipper:flipper-network-plugin:0.99.0] /Users/saikunchala/.gradle/caches/transforms-3/2c29b736c8f2a9d82fade7115b471d70/transformed/jetified-flipper-network-plugin-0.99.0/AndroidManifest.xml:8:1-15:12
MERGED from [com.facebook.flipper:flipper-fresco-plugin:0.99.0] /Users/saikunchala/.gradle/caches/transforms-3/e3a733608d857c466939da27af54ba77/transformed/jetified-flipper-fresco-plugin-0.99.0/AndroidManifest.xml:8:1-15:12
MERGED from [:react-native-maps] /Users/saikunchala/Desktop/BrandPulse/BrandPulse/node_modules/react-native-maps/lib/android/build/intermediates/merged_manifest/debug/AndroidManifest.xml:2:1-12:12
MERGED from [:react-native-community_geolocation] /Users/saikunchala/Desktop/BrandPulse/BrandPulse/node_modules/@react-native-community/geolocation/android/build/intermediates/merged_manifest/debug/AndroidManifest.xml:2:1-9:12
MERGED from [:react-native-safe-area-context] /Users/saikunchala/Desktop/BrandPulse/BrandPulse/node_modules/react-native-safe-area-context/android/build/intermediates/merged_manifest/debug/AndroidManifest.xml:2:1-9:12
MERGED from [:react-native-screens] /Users/saikunchala/Desktop/BrandPulse/BrandPulse/node_modules/react-native-screens/android/build/intermediates/merged_manifest/debug/AndroidManifest.xml:2:1-9:12
MERGED from [com.facebook.react:react-native:0.66.4] /Users/saikunchala/.gradle/caches/transforms-3/7403ebe5571a2ce5a6a5fc9876af4814/transformed/jetified-react-native-0.66.4/AndroidManifest.xml:2:1-11:12
MERGED from [com.google.android.gms:play-services-maps:17.0.0] /Users/saikunchala/.gradle/caches/transforms-3/6821bfc07eef432b0f26a0acd5357f0f/transformed/jetified-play-services-maps-17.0.0/AndroidManifest.xml:17:1-38:12
MERGED from [com.google.android.gms:play-services-base:17.2.1] /Users/saikunchala/.gradle/caches/transforms-3/e4c12c0fd148f81f2d365005a63ca53c/transformed/jetified-play-services-base-17.2.1/AndroidManifest.xml:17:1-29:12
MERGED from [androidx.swiperefreshlayout:swiperefreshlayout:1.0.0] /Users/saikunchala/.gradle/caches/transforms-3/9341f36f0ce470d4b55127e33c2ce075/transformed/swiperefreshlayout-1.0.0/AndroidManifest.xml:17:1-22:12
MERGED from [org.webkit:android-jsc:r250230] /Users/saikunchala/.gradle/caches/transforms-3/7873a5158addb5bf75ec8bc5226b9f2a/transformed/jetified-android-jsc-r250230/AndroidManifest.xml:2:1-11:12
MERGED from [com.facebook.fresco:flipper:2.5.0] /Users/saikunchala/.gradle/caches/transforms-3/5880c3ffcd9f3ffb65016eb160ab2121/transformed/jetified-flipper-2.5.0/AndroidManifest.xml:2:1-9:12
MERGED from [com.facebook.fresco:stetho:2.5.0] /Users/saikunchala/.gradle/caches/transforms-3/247a35ea3454e43292f80ed4e869afa6/transformed/jetified-stetho-2.5.0/AndroidManifest.xml:2:1-9:12
MERGED from [com.facebook.fresco:fresco:2.5.0] /Users/saikunchala/.gradle/caches/transforms-3/2e3be5b59ff1001e620058abe4b7c8c9/transformed/jetified-fresco-2.5.0/AndroidManifest.xml:2:1-9:12
MERGED from [com.facebook.fresco:soloader:2.5.0] /Users/saikunchala/.gradle/caches/transforms-3/d6d259317e4a56b55ba587f613fb48a2/transformed/jetified-soloader-2.5.0/AndroidManifest.xml:2:1-9:12
MERGED from [com.facebook.fresco:imagepipeline-okhttp3:2.5.0] /Users/saikunchala/.gradle/caches/transforms-3/6d576f05ff2510ef857a4a4bda541865/transformed/jetified-imagepipeline-okhttp3-2.5.0/AndroidManifest.xml:2:1-9:12
MERGED from [com.facebook.fresco:drawee:2.5.0] /Users/saikunchala/.gradle/caches/transforms-3/da58426860718cf7cd9b6432bdc1e74c/transformed/jetified-drawee-2.5.0/AndroidManifest.xml:2:1-9:12
MERGED from [com.facebook.fresco:nativeimagefilters:2.5.0] /Users/saikunchala/.gradle/caches/transforms-3/bfcd70de602582dafbe585f453d01685/transformed/jetified-nativeimagefilters-2.5.0/AndroidManifest.xml:2:1-9:12
MERGED from [com.facebook.fresco:memory-type-native:2.5.0] /Users/saikunchala/.gradle/caches/transforms-3/29ad267efc1aa56118152dd96a23ba9e/transformed/jetified-memory-type-native-2.5.0/AndroidManifest.xml:2:1-9:12
MERGED from [com.facebook.fresco:memory-type-java:2.5.0] /Users/saikunchala/.gradle/caches/transforms-3/cfe2fe1266f7b508fab117b793747328/transformed/jetified-memory-type-java-2.5.0/AndroidManifest.xml:2:1-9:12
MERGED from [com.facebook.fresco:imagepipeline-native:2.5.0] /Users/saikunchala/.gradle/caches/transforms-3/78fb03b70f57e7a893ea3d79f69454fd/transformed/jetified-imagepipeline-native-2.5.0/AndroidManifest.xml:2:1-9:12
MERGED from [com.facebook.soloader:soloader:0.10.1] /Users/saikunchala/.gradle/caches/transforms-3/4c346baed8905fc786ccf697aebc99f4/transformed/jetified-soloader-0.10.1/AndroidManifest.xml:2:1-13:12
MERGED from [com.facebook.fresco:memory-type-ashmem:2.5.0] /Users/saikunchala/.gradle/caches/transforms-3/9429e5f71025a78d24a47489563f8c07/transformed/jetified-memory-type-ashmem-2.5.0/AndroidManifest.xml:2:1-9:12
MERGED from [com.facebook.fresco:imagepipeline:2.5.0] /Users/saikunchala/.gradle/caches/transforms-3/5526495f296c8eeaa211326006983f13/transformed/jetified-imagepipeline-2.5.0/AndroidManifest.xml:2:1-9:12
MERGED from [com.facebook.fresco:nativeimagetranscoder:2.5.0] /Users/saikunchala/.gradle/caches/transforms-3/9c9b14e62e6566be253296541a1de4cb/transformed/jetified-nativeimagetranscoder-2.5.0/AndroidManifest.xml:2:1-9:12
MERGED from [com.facebook.fresco:imagepipeline-base:2.5.0] /Users/saikunchala/.gradle/caches/transforms-3/a48e403d00b0b0ddc92ec5c061189973/transformed/jetified-imagepipeline-base-2.5.0/AndroidManifest.xml:2:1-9:12
MERGED from [com.google.android.material:material:1.1.0] /Users/saikunchala/.gradle/caches/transforms-3/94ecee73d302f93903038c0fd7a3667d/transformed/material-1.1.0/AndroidManifest.xml:17:1-24:12
MERGED from [androidx.appcompat:appcompat:1.3.0] /Users/saikunchala/.gradle/caches/transforms-3/69a29bf10bcc958f91385ad904e935b2/transformed/appcompat-1.3.0/AndroidManifest.xml:17:1-24:12
MERGED from [androidx.sqlite:sqlite-framework:2.1.0] /Users/saikunchala/.gradle/caches/transforms-3/4cf80188f5b61a29833074cd7956dfba/transformed/sqlite-framework-2.1.0/AndroidManifest.xml:17:1-24:12
MERGED from [androidx.autofill:autofill:1.1.0] /Users/saikunchala/.gradle/caches/transforms-3/be9076cd4fc3ff6ad98aa6fb277b3148/transformed/jetified-autofill-1.1.0/AndroidManifest.xml:17:1-24:12
MERGED from [com.facebook.fresco:middleware:2.5.0] /Users/saikunchala/.gradle/caches/transforms-3/2bd3d214b93dcf428cfd42cc8814b2ed/transformed/jetified-middleware-2.5.0/AndroidManifest.xml:2:1-9:12
MERGED from [com.facebook.fresco:ui-common:2.5.0] /Users/saikunchala/.gradle/caches/transforms-3/78eba43129e0d31bec1d131435c69dcf/transformed/jetified-ui-common-2.5.0/AndroidManifest.xml:2:1-9:12
MERGED from [com.google.android.gms:play-services-location:17.0.0] /Users/saikunchala/.gradle/caches/transforms-3/b32c7f2de3aa52c3c8f93cb70e53ae78/transformed/jetified-play-services-location-17.0.0/AndroidManifest.xml:2:1-9:12
MERGED from [com.google.maps.android:android-maps-utils:0.5] /Users/saikunchala/.gradle/caches/transforms-3/c893a02ebf49573d78d4b94e520a30c1/transformed/jetified-android-maps-utils-0.5/AndroidManifest.xml:2:1-13:12
MERGED from [com.google.android.gms:play-services-tasks:17.0.2] /Users/saikunchala/.gradle/caches/transforms-3/5681fc430407540dc63a76598207c099/transformed/jetified-play-services-tasks-17.0.2/AndroidManifest.xml:2:1-9:12
MERGED from [com.google.android.gms:play-services-places-placereport:17.0.0] /Users/saikunchala/.gradle/caches/transforms-3/6b9047c098a9cdc7fb0c5acacddd4446/transformed/jetified-play-services-places-placereport-17.0.0/AndroidManifest.xml:17:1-24:12
MERGED from [com.google.android.gms:play-services-basement:17.2.1] /Users/saikunchala/.gradle/caches/transforms-3/51419d31498079c1036c51859b5e4d7d/transformed/jetified-play-services-basement-17.2.1/AndroidManifest.xml:17:1-28:12
MERGED from [androidx.coordinatorlayout:coordinatorlayout:1.1.0] /Users/saikunchala/.gradle/caches/transforms-3/530e90c3ee142f7f959c69298c7c5ded/transformed/coordinatorlayout-1.1.0/AndroidManifest.xml:17:1-24:12
MERGED from [androidx.viewpager2:viewpager2:1.0.0] /Users/saikunchala/.gradle/caches/transforms-3/a19e52b53eb437c1a1e2beb909f23bc9/transformed/jetified-viewpager2-1.0.0/AndroidManifest.xml:17:1-24:12
MERGED from [androidx.fragment:fragment:1.3.4] /Users/saikunchala/.gradle/caches/transforms-3/d29e2b008fda9570dcb20a45a8889feb/transformed/fragment-1.3.4/AndroidManifest.xml:17:1-24:12
MERGED from [androidx.activity:activity:1.2.3] /Users/saikunchala/.gradle/caches/transforms-3/2845ad8d4ac5308576a5eb6f72ea168d/transformed/jetified-activity-1.2.3/AndroidManifest.xml:17:1-24:12
MERGED from [androidx.appcompat:appcompat-resources:1.3.0] /Users/saikunchala/.gradle/caches/transforms-3/262def0251b4f6c882149d15641ff92b/transformed/jetified-appcompat-resources-1.3.0/AndroidManifest.xml:17:1-24:12
MERGED from [androidx.drawerlayout:drawerlayout:1.0.0] /Users/saikunchala/.gradle/caches/transforms-3/6fa7b39b5df705c5310dc54c9428ddb2/transformed/drawerlayout-1.0.0/AndroidManifest.xml:17:1-22:12
MERGED from [androidx.viewpager:viewpager:1.0.0] /Users/saikunchala/.gradle/caches/transforms-3/09064782b8f9c0d066bcd2a3c8b04255/transformed/viewpager-1.0.0/AndroidManifest.xml:17:1-22:12
MERGED from [androidx.recyclerview:recyclerview:1.1.0] /Users/saikunchala/.gradle/caches/transforms-3/e1b8018dc60702fe7502f85988cad1c2/transformed/recyclerview-1.1.0/AndroidManifest.xml:17:1-24:12
MERGED from [androidx.customview:customview:1.0.0] /Users/saikunchala/.gradle/caches/transforms-3/52776be0cd260004f7c3543526e82dde/transformed/customview-1.0.0/AndroidManifest.xml:17:1-22:12
MERGED from [androidx.transition:transition:1.2.0] /Users/saikunchala/.gradle/caches/transforms-3/40ca51d2249b4d506bc1f8236223e39e/transformed/transition-1.2.0/AndroidManifest.xml:17:1-24:12
MERGED from [androidx.vectordrawable:vectordrawable-animated:1.1.0] /Users/saikunchala/.gradle/caches/transforms-3/57e3d46cd409853c916c88a2c3ae94fd/transformed/vectordrawable-animated-1.1.0/AndroidManifest.xml:17:1-24:12
MERGED from [androidx.vectordrawable:vectordrawable:1.1.0] /Users/saikunchala/.gradle/caches/transforms-3/bd931bf16554ef3a5f9f30ddc05589c6/transformed/vectordrawable-1.1.0/AndroidManifest.xml:17:1-24:12
MERGED from [androidx.loader:loader:1.0.0] /Users/saikunchala/.gradle/caches/transforms-3/60d60c30d7e19309c125baad97767572/transformed/loader-1.0.0/AndroidManifest.xml:17:1-22:12
MERGED from [androidx.core:core:1.5.0] /Users/saikunchala/.gradle/caches/transforms-3/5646db46e2cfb43e7b3d42f3054c498c/transformed/core-1.5.0/AndroidManifest.xml:17:1-26:12
MERGED from [androidx.versionedparcelable:versionedparcelable:1.1.1] /Users/saikunchala/.gradle/caches/transforms-3/233eab6c731cb1ce714d2d0256cc6f18/transformed/versionedparcelable-1.1.1/AndroidManifest.xml:17:1-27:12
MERGED from [androidx.interpolator:interpolator:1.0.0] /Users/saikunchala/.gradle/caches/transforms-3/db0f9dfc2cb9e58d20874cad38a46146/transformed/interpolator-1.0.0/AndroidManifest.xml:17:1-22:12
MERGED from [androidx.cursoradapter:cursoradapter:1.0.0] /Users/saikunchala/.gradle/caches/transforms-3/0be91775d24cf865decfe7ed4d5eda66/transformed/cursoradapter-1.0.0/AndroidManifest.xml:17:1-22:12
MERGED from [androidx.lifecycle:lifecycle-viewmodel-savedstate:2.3.1] /Users/saikunchala/.gradle/caches/transforms-3/5b491d77bde65b71a6cae58aa9211dcf/transformed/jetified-lifecycle-viewmodel-savedstate-2.3.1/AndroidManifest.xml:17:1-24:12
MERGED from [androidx.savedstate:savedstate:1.1.0] /Users/saikunchala/.gradle/caches/transforms-3/ecf84c0383f3135c8315e19df5cad97b/transformed/jetified-savedstate-1.1.0/AndroidManifest.xml:17:1-24:12
MERGED from [androidx.lifecycle:lifecycle-runtime:2.3.1] /Users/saikunchala/.gradle/caches/transforms-3/95eef8d21bb330bbf58c8c1672988eae/transformed/lifecycle-runtime-2.3.1/AndroidManifest.xml:17:1-24:12
MERGED from [androidx.lifecycle:lifecycle-viewmodel:2.3.1] /Users/saikunchala/.gradle/caches/transforms-3/19dbf037054f995da5dedc6be291ab0b/transformed/lifecycle-viewmodel-2.3.1/AndroidManifest.xml:17:1-24:12
MERGED from [androidx.sqlite:sqlite:2.1.0] /Users/saikunchala/.gradle/caches/transforms-3/7a81e244e9259b8a22519a8ac58816e8/transformed/sqlite-2.1.0/AndroidManifest.xml:17:1-24:12
MERGED from [androidx.cardview:cardview:1.0.0] /Users/saikunchala/.gradle/caches/transforms-3/0e82c8f39b666fb3af71c210912c7fc0/transformed/cardview-1.0.0/AndroidManifest.xml:17:1-22:12
MERGED from [androidx.tracing:tracing:1.0.0] /Users/saikunchala/.gradle/caches/transforms-3/2b0f8c1393b8d656dc1b4fd4cb42a675/transformed/jetified-tracing-1.0.0/AndroidManifest.xml:17:1-24:12
MERGED from [androidx.lifecycle:lifecycle-livedata:2.0.0] /Users/saikunchala/.gradle/caches/transforms-3/52571f97fa6c48622e09021afd8f199b/transformed/lifecycle-livedata-2.0.0/AndroidManifest.xml:17:1-22:12
MERGED from [androidx.lifecycle:lifecycle-livedata-core:2.3.1] /Users/saikunchala/.gradle/caches/transforms-3/d17db292503a9dfb32fc2010180b8533/transformed/lifecycle-livedata-core-2.3.1/AndroidManifest.xml:17:1-24:12
MERGED from [androidx.arch.core:core-runtime:2.1.0] /Users/saikunchala/.gradle/caches/transforms-3/f9626132104606c8a5a0763d03129850/transformed/core-runtime-2.1.0/AndroidManifest.xml:17:1-24:12
MERGED from [com.facebook.fresco:fbcore:2.5.0] /Users/saikunchala/.gradle/caches/transforms-3/80cae4052e041bdf30fb0fa272e54409/transformed/jetified-fbcore-2.5.0/AndroidManifest.xml:2:1-9:12
MERGED from [androidx.annotation:annotation-experimental:1.0.0] /Users/saikunchala/.gradle/caches/transforms-3/65083a7e9fb6753ce1340588a4e7a976/transformed/jetified-annotation-experimental-1.0.0/AndroidManifest.xml:17:1-24:12
INJECTED from /Users/saikunchala/Desktop/BrandPulse/BrandPulse/android/app/src/debug/AndroidManifest.xml:2:1-13:12
INJECTED from /Users/saikunchala/Desktop/BrandPulse/BrandPulse/android/app/src/debug/AndroidManifest.xml:2:1-13:12
INJECTED from /Users/saikunchala/Desktop/BrandPulse/BrandPulse/android/app/src/debug/AndroidManifest.xml:2:1-13:12
	package
		ADDED from /Users/saikunchala/Desktop/BrandPulse/BrandPulse/android/app/src/main/AndroidManifest.xml:2:3-27
		INJECTED from /Users/saikunchala/Desktop/BrandPulse/BrandPulse/android/app/src/main/AndroidManifest.xml
		ADDED from /Users/saikunchala/Desktop/BrandPulse/BrandPulse/android/app/src/main/AndroidManifest.xml:2:3-27
		INJECTED from /Users/saikunchala/Desktop/BrandPulse/BrandPulse/android/app/src/debug/AndroidManifest.xml
	android:versionName
		INJECTED from /Users/saikunchala/Desktop/BrandPulse/BrandPulse/android/app/src/main/AndroidManifest.xml
		ADDED from /Users/saikunchala/Desktop/BrandPulse/BrandPulse/android/app/src/main/AndroidManifest.xml:1:1-30:12
		INJECTED from /Users/saikunchala/Desktop/BrandPulse/BrandPulse/android/app/src/debug/AndroidManifest.xml
	xmlns:tools
		ADDED from /Users/saikunchala/Desktop/BrandPulse/BrandPulse/android/app/src/debug/AndroidManifest.xml:3:5-51
	android:versionCode
		INJECTED from /Users/saikunchala/Desktop/BrandPulse/BrandPulse/android/app/src/main/AndroidManifest.xml
		ADDED from /Users/saikunchala/Desktop/BrandPulse/BrandPulse/android/app/src/main/AndroidManifest.xml:1:1-30:12
		INJECTED from /Users/saikunchala/Desktop/BrandPulse/BrandPulse/android/app/src/debug/AndroidManifest.xml
	xmlns:android
		ADDED from /Users/saikunchala/Desktop/BrandPulse/BrandPulse/android/app/src/main/AndroidManifest.xml:1:11-69
uses-permission#android.permission.INTERNET
ADDED from /Users/saikunchala/Desktop/BrandPulse/BrandPulse/android/app/src/main/AndroidManifest.xml:4:5-67
MERGED from [com.facebook.flipper:flipper:0.99.0] /Users/saikunchala/.gradle/caches/transforms-3/2f5725507f1929c6ddf8255f0bef77bd/transformed/jetified-flipper-0.99.0/AndroidManifest.xml:15:5-67
MERGED from [com.facebook.flipper:flipper:0.99.0] /Users/saikunchala/.gradle/caches/transforms-3/2f5725507f1929c6ddf8255f0bef77bd/transformed/jetified-flipper-0.99.0/AndroidManifest.xml:15:5-67
MERGED from [:react-native-maps] /Users/saikunchala/Desktop/BrandPulse/BrandPulse/node_modules/react-native-maps/lib/android/build/intermediates/merged_manifest/debug/AndroidManifest.xml:9:5-67
MERGED from [:react-native-maps] /Users/saikunchala/Desktop/BrandPulse/BrandPulse/node_modules/react-native-maps/lib/android/build/intermediates/merged_manifest/debug/AndroidManifest.xml:9:5-67
MERGED from [com.google.android.gms:play-services-maps:17.0.0] /Users/saikunchala/.gradle/caches/transforms-3/6821bfc07eef432b0f26a0acd5357f0f/transformed/jetified-play-services-maps-17.0.0/AndroidManifest.xml:24:5-67
MERGED from [com.google.android.gms:play-services-maps:17.0.0] /Users/saikunchala/.gradle/caches/transforms-3/6821bfc07eef432b0f26a0acd5357f0f/transformed/jetified-play-services-maps-17.0.0/AndroidManifest.xml:24:5-67
	android:name
		ADDED from /Users/saikunchala/Desktop/BrandPulse/BrandPulse/android/app/src/main/AndroidManifest.xml:4:22-64
uses-permission#android.permission.ACCESS_FINE_LOCATION
ADDED from /Users/saikunchala/Desktop/BrandPulse/BrandPulse/android/app/src/main/AndroidManifest.xml:5:6-7:3
	android:name
		ADDED from /Users/saikunchala/Desktop/BrandPulse/BrandPulse/android/app/src/main/AndroidManifest.xml:6:4-58
application
ADDED from /Users/saikunchala/Desktop/BrandPulse/BrandPulse/android/app/src/main/AndroidManifest.xml:8:5-29:19
MERGED from /Users/saikunchala/Desktop/BrandPulse/BrandPulse/android/app/src/main/AndroidManifest.xml:8:5-29:19
MERGED from /Users/saikunchala/Desktop/BrandPulse/BrandPulse/android/app/src/main/AndroidManifest.xml:8:5-29:19
MERGED from [com.facebook.react:react-native:0.66.4] /Users/saikunchala/.gradle/caches/transforms-3/7403ebe5571a2ce5a6a5fc9876af4814/transformed/jetified-react-native-0.66.4/AndroidManifest.xml:9:5-20
MERGED from [com.facebook.react:react-native:0.66.4] /Users/saikunchala/.gradle/caches/transforms-3/7403ebe5571a2ce5a6a5fc9876af4814/transformed/jetified-react-native-0.66.4/AndroidManifest.xml:9:5-20
MERGED from [com.google.android.gms:play-services-maps:17.0.0] /Users/saikunchala/.gradle/caches/transforms-3/6821bfc07eef432b0f26a0acd5357f0f/transformed/jetified-play-services-maps-17.0.0/AndroidManifest.xml:30:5-36:19
MERGED from [com.google.android.gms:play-services-maps:17.0.0] /Users/saikunchala/.gradle/caches/transforms-3/6821bfc07eef432b0f26a0acd5357f0f/transformed/jetified-play-services-maps-17.0.0/AndroidManifest.xml:30:5-36:19
MERGED from [com.google.android.gms:play-services-base:17.2.1] /Users/saikunchala/.gradle/caches/transforms-3/e4c12c0fd148f81f2d365005a63ca53c/transformed/jetified-play-services-base-17.2.1/AndroidManifest.xml:22:5-27:19
MERGED from [com.google.android.gms:play-services-base:17.2.1] /Users/saikunchala/.gradle/caches/transforms-3/e4c12c0fd148f81f2d365005a63ca53c/transformed/jetified-play-services-base-17.2.1/AndroidManifest.xml:22:5-27:19
MERGED from [com.facebook.soloader:soloader:0.10.1] /Users/saikunchala/.gradle/caches/transforms-3/4c346baed8905fc786ccf697aebc99f4/transformed/jetified-soloader-0.10.1/AndroidManifest.xml:11:5-20
MERGED from [com.facebook.soloader:soloader:0.10.1] /Users/saikunchala/.gradle/caches/transforms-3/4c346baed8905fc786ccf697aebc99f4/transformed/jetified-soloader-0.10.1/AndroidManifest.xml:11:5-20
MERGED from [com.google.android.material:material:1.1.0] /Users/saikunchala/.gradle/caches/transforms-3/94ecee73d302f93903038c0fd7a3667d/transformed/material-1.1.0/AndroidManifest.xml:22:5-20
MERGED from [com.google.android.material:material:1.1.0] /Users/saikunchala/.gradle/caches/transforms-3/94ecee73d302f93903038c0fd7a3667d/transformed/material-1.1.0/AndroidManifest.xml:22:5-20
MERGED from [com.google.android.gms:play-services-location:17.0.0] /Users/saikunchala/.gradle/caches/transforms-3/b32c7f2de3aa52c3c8f93cb70e53ae78/transformed/jetified-play-services-location-17.0.0/AndroidManifest.xml:7:5-20
MERGED from [com.google.android.gms:play-services-location:17.0.0] /Users/saikunchala/.gradle/caches/transforms-3/b32c7f2de3aa52c3c8f93cb70e53ae78/transformed/jetified-play-services-location-17.0.0/AndroidManifest.xml:7:5-20
MERGED from [com.google.maps.android:android-maps-utils:0.5] /Users/saikunchala/.gradle/caches/transforms-3/c893a02ebf49573d78d4b94e520a30c1/transformed/jetified-android-maps-utils-0.5/AndroidManifest.xml:7:5-11:19
MERGED from [com.google.maps.android:android-maps-utils:0.5] /Users/saikunchala/.gradle/caches/transforms-3/c893a02ebf49573d78d4b94e520a30c1/transformed/jetified-android-maps-utils-0.5/AndroidManifest.xml:7:5-11:19
MERGED from [com.google.android.gms:play-services-tasks:17.0.2] /Users/saikunchala/.gradle/caches/transforms-3/5681fc430407540dc63a76598207c099/transformed/jetified-play-services-tasks-17.0.2/AndroidManifest.xml:7:5-20
MERGED from [com.google.android.gms:play-services-tasks:17.0.2] /Users/saikunchala/.gradle/caches/transforms-3/5681fc430407540dc63a76598207c099/transformed/jetified-play-services-tasks-17.0.2/AndroidManifest.xml:7:5-20
MERGED from [com.google.android.gms:play-services-places-placereport:17.0.0] /Users/saikunchala/.gradle/caches/transforms-3/6b9047c098a9cdc7fb0c5acacddd4446/transformed/jetified-play-services-places-placereport-17.0.0/AndroidManifest.xml:22:5-20
MERGED from [com.google.android.gms:play-services-places-placereport:17.0.0] /Users/saikunchala/.gradle/caches/transforms-3/6b9047c098a9cdc7fb0c5acacddd4446/transformed/jetified-play-services-places-placereport-17.0.0/AndroidManifest.xml:22:5-20
MERGED from [com.google.android.gms:play-services-basement:17.2.1] /Users/saikunchala/.gradle/caches/transforms-3/51419d31498079c1036c51859b5e4d7d/transformed/jetified-play-services-basement-17.2.1/AndroidManifest.xml:22:5-26:19
MERGED from [com.google.android.gms:play-services-basement:17.2.1] /Users/saikunchala/.gradle/caches/transforms-3/51419d31498079c1036c51859b5e4d7d/transformed/jetified-play-services-basement-17.2.1/AndroidManifest.xml:22:5-26:19
MERGED from [androidx.core:core:1.5.0] /Users/saikunchala/.gradle/caches/transforms-3/5646db46e2cfb43e7b3d42f3054c498c/transformed/core-1.5.0/AndroidManifest.xml:24:5-89
MERGED from [androidx.core:core:1.5.0] /Users/saikunchala/.gradle/caches/transforms-3/5646db46e2cfb43e7b3d42f3054c498c/transformed/core-1.5.0/AndroidManifest.xml:24:5-89
MERGED from [androidx.versionedparcelable:versionedparcelable:1.1.1] /Users/saikunchala/.gradle/caches/transforms-3/233eab6c731cb1ce714d2d0256cc6f18/transformed/versionedparcelable-1.1.1/AndroidManifest.xml:24:5-25:19
MERGED from [androidx.versionedparcelable:versionedparcelable:1.1.1] /Users/saikunchala/.gradle/caches/transforms-3/233eab6c731cb1ce714d2d0256cc6f18/transformed/versionedparcelable-1.1.1/AndroidManifest.xml:24:5-25:19
	android:appComponentFactory
		ADDED from [androidx.core:core:1.5.0] /Users/saikunchala/.gradle/caches/transforms-3/5646db46e2cfb43e7b3d42f3054c498c/transformed/core-1.5.0/AndroidManifest.xml:24:18-86
	android:label
		ADDED from /Users/saikunchala/Desktop/BrandPulse/BrandPulse/android/app/src/main/AndroidManifest.xml:10:7-39
		ADDED from /Users/saikunchala/Desktop/BrandPulse/BrandPulse/android/app/src/main/AndroidManifest.xml:10:7-39
	tools:ignore
		ADDED from /Users/saikunchala/Desktop/BrandPulse/BrandPulse/android/app/src/debug/AndroidManifest.xml:10:9-48
	android:roundIcon
		ADDED from /Users/saikunchala/Desktop/BrandPulse/BrandPulse/android/app/src/main/AndroidManifest.xml:12:7-52
		ADDED from /Users/saikunchala/Desktop/BrandPulse/BrandPulse/android/app/src/main/AndroidManifest.xml:12:7-52
	tools:targetApi
		ADDED from /Users/saikunchala/Desktop/BrandPulse/BrandPulse/android/app/src/debug/AndroidManifest.xml:9:9-29
	android:icon
		ADDED from /Users/saikunchala/Desktop/BrandPulse/BrandPulse/android/app/src/main/AndroidManifest.xml:11:7-41
		ADDED from /Users/saikunchala/Desktop/BrandPulse/BrandPulse/android/app/src/main/AndroidManifest.xml:11:7-41
	android:allowBackup
		ADDED from /Users/saikunchala/Desktop/BrandPulse/BrandPulse/android/app/src/main/AndroidManifest.xml:13:7-34
		ADDED from /Users/saikunchala/Desktop/BrandPulse/BrandPulse/android/app/src/main/AndroidManifest.xml:13:7-34
	android:theme
		ADDED from /Users/saikunchala/Desktop/BrandPulse/BrandPulse/android/app/src/main/AndroidManifest.xml:14:7-38
		ADDED from /Users/saikunchala/Desktop/BrandPulse/BrandPulse/android/app/src/main/AndroidManifest.xml:14:7-38
	android:usesCleartextTraffic
		ADDED from /Users/saikunchala/Desktop/BrandPulse/BrandPulse/android/app/src/debug/AndroidManifest.xml:8:9-44
	android:name
		ADDED from /Users/saikunchala/Desktop/BrandPulse/BrandPulse/android/app/src/main/AndroidManifest.xml:9:7-38
		ADDED from /Users/saikunchala/Desktop/BrandPulse/BrandPulse/android/app/src/main/AndroidManifest.xml:9:7-38
activity#com.brandpulse.MainActivity
ADDED from /Users/saikunchala/Desktop/BrandPulse/BrandPulse/android/app/src/main/AndroidManifest.xml:15:7-25:18
	android:label
		ADDED from /Users/saikunchala/Desktop/BrandPulse/BrandPulse/android/app/src/main/AndroidManifest.xml:17:9-41
	android:launchMode
		ADDED from /Users/saikunchala/Desktop/BrandPulse/BrandPulse/android/app/src/main/AndroidManifest.xml:19:9-40
	android:windowSoftInputMode
		ADDED from /Users/saikunchala/Desktop/BrandPulse/BrandPulse/android/app/src/main/AndroidManifest.xml:20:9-51
	android:configChanges
		ADDED from /Users/saikunchala/Desktop/BrandPulse/BrandPulse/android/app/src/main/AndroidManifest.xml:18:9-86
	android:name
		ADDED from /Users/saikunchala/Desktop/BrandPulse/BrandPulse/android/app/src/main/AndroidManifest.xml:16:9-37
intent-filter#action:name:android.intent.action.MAIN+category:name:android.intent.category.LAUNCHER
ADDED from /Users/saikunchala/Desktop/BrandPulse/BrandPulse/android/app/src/main/AndroidManifest.xml:21:9-24:25
action#android.intent.action.MAIN
ADDED from /Users/saikunchala/Desktop/BrandPulse/BrandPulse/android/app/src/main/AndroidManifest.xml:22:13-65
	android:name
		ADDED from /Users/saikunchala/Desktop/BrandPulse/BrandPulse/android/app/src/main/AndroidManifest.xml:22:21-62
category#android.intent.category.LAUNCHER
ADDED from /Users/saikunchala/Desktop/BrandPulse/BrandPulse/android/app/src/main/AndroidManifest.xml:23:13-73
	android:name
		ADDED from /Users/saikunchala/Desktop/BrandPulse/BrandPulse/android/app/src/main/AndroidManifest.xml:23:23-70
meta-data#com.google.android.geo.API_KEY
ADDED from /Users/saikunchala/Desktop/BrandPulse/BrandPulse/android/app/src/main/AndroidManifest.xml:26:7-28:53
	android:value
		ADDED from /Users/saikunchala/Desktop/BrandPulse/BrandPulse/android/app/src/main/AndroidManifest.xml:28:6-51
	android:name
		ADDED from /Users/saikunchala/Desktop/BrandPulse/BrandPulse/android/app/src/main/AndroidManifest.xml:27:6-51
uses-sdk
INJECTED from /Users/saikunchala/Desktop/BrandPulse/BrandPulse/android/app/src/main/AndroidManifest.xml reason: use-sdk injection requested
INJECTED from /Users/saikunchala/Desktop/BrandPulse/BrandPulse/android/app/src/main/AndroidManifest.xml
INJECTED from /Users/saikunchala/Desktop/BrandPulse/BrandPulse/android/app/src/main/AndroidManifest.xml
MERGED from [com.facebook.flipper:flipper:0.99.0] /Users/saikunchala/.gradle/caches/transforms-3/2f5725507f1929c6ddf8255f0bef77bd/transformed/jetified-flipper-0.99.0/AndroidManifest.xml:11:5-13:41
MERGED from [com.facebook.flipper:flipper:0.99.0] /Users/saikunchala/.gradle/caches/transforms-3/2f5725507f1929c6ddf8255f0bef77bd/transformed/jetified-flipper-0.99.0/AndroidManifest.xml:11:5-13:41
MERGED from [com.facebook.flipper:flipper-network-plugin:0.99.0] /Users/saikunchala/.gradle/caches/transforms-3/2c29b736c8f2a9d82fade7115b471d70/transformed/jetified-flipper-network-plugin-0.99.0/AndroidManifest.xml:11:5-13:41
MERGED from [com.facebook.flipper:flipper-network-plugin:0.99.0] /Users/saikunchala/.gradle/caches/transforms-3/2c29b736c8f2a9d82fade7115b471d70/transformed/jetified-flipper-network-plugin-0.99.0/AndroidManifest.xml:11:5-13:41
MERGED from [com.facebook.flipper:flipper-fresco-plugin:0.99.0] /Users/saikunchala/.gradle/caches/transforms-3/e3a733608d857c466939da27af54ba77/transformed/jetified-flipper-fresco-plugin-0.99.0/AndroidManifest.xml:11:5-13:41
MERGED from [com.facebook.flipper:flipper-fresco-plugin:0.99.0] /Users/saikunchala/.gradle/caches/transforms-3/e3a733608d857c466939da27af54ba77/transformed/jetified-flipper-fresco-plugin-0.99.0/AndroidManifest.xml:11:5-13:41
MERGED from [:react-native-maps] /Users/saikunchala/Desktop/BrandPulse/BrandPulse/node_modules/react-native-maps/lib/android/build/intermediates/merged_manifest/debug/AndroidManifest.xml:5:5-7:41
MERGED from [:react-native-maps] /Users/saikunchala/Desktop/BrandPulse/BrandPulse/node_modules/react-native-maps/lib/android/build/intermediates/merged_manifest/debug/AndroidManifest.xml:5:5-7:41
MERGED from [:react-native-community_geolocation] /Users/saikunchala/Desktop/BrandPulse/BrandPulse/node_modules/@react-native-community/geolocation/android/build/intermediates/merged_manifest/debug/AndroidManifest.xml:5:5-7:41
MERGED from [:react-native-community_geolocation] /Users/saikunchala/Desktop/BrandPulse/BrandPulse/node_modules/@react-native-community/geolocation/android/build/intermediates/merged_manifest/debug/AndroidManifest.xml:5:5-7:41
MERGED from [:react-native-safe-area-context] /Users/saikunchala/Desktop/BrandPulse/BrandPulse/node_modules/react-native-safe-area-context/android/build/intermediates/merged_manifest/debug/AndroidManifest.xml:5:5-7:41
MERGED from [:react-native-safe-area-context] /Users/saikunchala/Desktop/BrandPulse/BrandPulse/node_modules/react-native-safe-area-context/android/build/intermediates/merged_manifest/debug/AndroidManifest.xml:5:5-7:41
MERGED from [:react-native-screens] /Users/saikunchala/Desktop/BrandPulse/BrandPulse/node_modules/react-native-screens/android/build/intermediates/merged_manifest/debug/AndroidManifest.xml:5:5-7:41
MERGED from [:react-native-screens] /Users/saikunchala/Desktop/BrandPulse/BrandPulse/node_modules/react-native-screens/android/build/intermediates/merged_manifest/debug/AndroidManifest.xml:5:5-7:41
MERGED from [com.facebook.react:react-native:0.66.4] /Users/saikunchala/.gradle/caches/transforms-3/7403ebe5571a2ce5a6a5fc9876af4814/transformed/jetified-react-native-0.66.4/AndroidManifest.xml:5:5-7:41
MERGED from [com.facebook.react:react-native:0.66.4] /Users/saikunchala/.gradle/caches/transforms-3/7403ebe5571a2ce5a6a5fc9876af4814/transformed/jetified-react-native-0.66.4/AndroidManifest.xml:5:5-7:41
MERGED from [com.google.android.gms:play-services-maps:17.0.0] /Users/saikunchala/.gradle/caches/transforms-3/6821bfc07eef432b0f26a0acd5357f0f/transformed/jetified-play-services-maps-17.0.0/AndroidManifest.xml:20:5-44
MERGED from [com.google.android.gms:play-services-maps:17.0.0] /Users/saikunchala/.gradle/caches/transforms-3/6821bfc07eef432b0f26a0acd5357f0f/transformed/jetified-play-services-maps-17.0.0/AndroidManifest.xml:20:5-44
MERGED from [com.google.android.gms:play-services-base:17.2.1] /Users/saikunchala/.gradle/caches/transforms-3/e4c12c0fd148f81f2d365005a63ca53c/transformed/jetified-play-services-base-17.2.1/AndroidManifest.xml:20:5-44
MERGED from [com.google.android.gms:play-services-base:17.2.1] /Users/saikunchala/.gradle/caches/transforms-3/e4c12c0fd148f81f2d365005a63ca53c/transformed/jetified-play-services-base-17.2.1/AndroidManifest.xml:20:5-44
MERGED from [androidx.swiperefreshlayout:swiperefreshlayout:1.0.0] /Users/saikunchala/.gradle/caches/transforms-3/9341f36f0ce470d4b55127e33c2ce075/transformed/swiperefreshlayout-1.0.0/AndroidManifest.xml:20:5-44
MERGED from [androidx.swiperefreshlayout:swiperefreshlayout:1.0.0] /Users/saikunchala/.gradle/caches/transforms-3/9341f36f0ce470d4b55127e33c2ce075/transformed/swiperefreshlayout-1.0.0/AndroidManifest.xml:20:5-44
MERGED from [org.webkit:android-jsc:r250230] /Users/saikunchala/.gradle/caches/transforms-3/7873a5158addb5bf75ec8bc5226b9f2a/transformed/jetified-android-jsc-r250230/AndroidManifest.xml:7:5-9:41
MERGED from [org.webkit:android-jsc:r250230] /Users/saikunchala/.gradle/caches/transforms-3/7873a5158addb5bf75ec8bc5226b9f2a/transformed/jetified-android-jsc-r250230/AndroidManifest.xml:7:5-9:41
MERGED from [com.facebook.fresco:flipper:2.5.0] /Users/saikunchala/.gradle/caches/transforms-3/5880c3ffcd9f3ffb65016eb160ab2121/transformed/jetified-flipper-2.5.0/AndroidManifest.xml:5:5-7:41
MERGED from [com.facebook.fresco:flipper:2.5.0] /Users/saikunchala/.gradle/caches/transforms-3/5880c3ffcd9f3ffb65016eb160ab2121/transformed/jetified-flipper-2.5.0/AndroidManifest.xml:5:5-7:41
MERGED from [com.facebook.fresco:stetho:2.5.0] /Users/saikunchala/.gradle/caches/transforms-3/247a35ea3454e43292f80ed4e869afa6/transformed/jetified-stetho-2.5.0/AndroidManifest.xml:5:5-7:41
MERGED from [com.facebook.fresco:stetho:2.5.0] /Users/saikunchala/.gradle/caches/transforms-3/247a35ea3454e43292f80ed4e869afa6/transformed/jetified-stetho-2.5.0/AndroidManifest.xml:5:5-7:41
MERGED from [com.facebook.fresco:fresco:2.5.0] /Users/saikunchala/.gradle/caches/transforms-3/2e3be5b59ff1001e620058abe4b7c8c9/transformed/jetified-fresco-2.5.0/AndroidManifest.xml:5:5-7:41
MERGED from [com.facebook.fresco:fresco:2.5.0] /Users/saikunchala/.gradle/caches/transforms-3/2e3be5b59ff1001e620058abe4b7c8c9/transformed/jetified-fresco-2.5.0/AndroidManifest.xml:5:5-7:41
MERGED from [com.facebook.fresco:soloader:2.5.0] /Users/saikunchala/.gradle/caches/transforms-3/d6d259317e4a56b55ba587f613fb48a2/transformed/jetified-soloader-2.5.0/AndroidManifest.xml:5:5-7:41
MERGED from [com.facebook.fresco:soloader:2.5.0] /Users/saikunchala/.gradle/caches/transforms-3/d6d259317e4a56b55ba587f613fb48a2/transformed/jetified-soloader-2.5.0/AndroidManifest.xml:5:5-7:41
MERGED from [com.facebook.fresco:imagepipeline-okhttp3:2.5.0] /Users/saikunchala/.gradle/caches/transforms-3/6d576f05ff2510ef857a4a4bda541865/transformed/jetified-imagepipeline-okhttp3-2.5.0/AndroidManifest.xml:5:5-7:41
MERGED from [com.facebook.fresco:imagepipeline-okhttp3:2.5.0] /Users/saikunchala/.gradle/caches/transforms-3/6d576f05ff2510ef857a4a4bda541865/transformed/jetified-imagepipeline-okhttp3-2.5.0/AndroidManifest.xml:5:5-7:41
MERGED from [com.facebook.fresco:drawee:2.5.0] /Users/saikunchala/.gradle/caches/transforms-3/da58426860718cf7cd9b6432bdc1e74c/transformed/jetified-drawee-2.5.0/AndroidManifest.xml:5:5-7:41
MERGED from [com.facebook.fresco:drawee:2.5.0] /Users/saikunchala/.gradle/caches/transforms-3/da58426860718cf7cd9b6432bdc1e74c/transformed/jetified-drawee-2.5.0/AndroidManifest.xml:5:5-7:41
MERGED from [com.facebook.fresco:nativeimagefilters:2.5.0] /Users/saikunchala/.gradle/caches/transforms-3/bfcd70de602582dafbe585f453d01685/transformed/jetified-nativeimagefilters-2.5.0/AndroidManifest.xml:5:5-7:41
MERGED from [com.facebook.fresco:nativeimagefilters:2.5.0] /Users/saikunchala/.gradle/caches/transforms-3/bfcd70de602582dafbe585f453d01685/transformed/jetified-nativeimagefilters-2.5.0/AndroidManifest.xml:5:5-7:41
MERGED from [com.facebook.fresco:memory-type-native:2.5.0] /Users/saikunchala/.gradle/caches/transforms-3/29ad267efc1aa56118152dd96a23ba9e/transformed/jetified-memory-type-native-2.5.0/AndroidManifest.xml:5:5-7:41
MERGED from [com.facebook.fresco:memory-type-native:2.5.0] /Users/saikunchala/.gradle/caches/transforms-3/29ad267efc1aa56118152dd96a23ba9e/transformed/jetified-memory-type-native-2.5.0/AndroidManifest.xml:5:5-7:41
MERGED from [com.facebook.fresco:memory-type-java:2.5.0] /Users/saikunchala/.gradle/caches/transforms-3/cfe2fe1266f7b508fab117b793747328/transformed/jetified-memory-type-java-2.5.0/AndroidManifest.xml:5:5-7:41
MERGED from [com.facebook.fresco:memory-type-java:2.5.0] /Users/saikunchala/.gradle/caches/transforms-3/cfe2fe1266f7b508fab117b793747328/transformed/jetified-memory-type-java-2.5.0/AndroidManifest.xml:5:5-7:41
MERGED from [com.facebook.fresco:imagepipeline-native:2.5.0] /Users/saikunchala/.gradle/caches/transforms-3/78fb03b70f57e7a893ea3d79f69454fd/transformed/jetified-imagepipeline-native-2.5.0/AndroidManifest.xml:5:5-7:41
MERGED from [com.facebook.fresco:imagepipeline-native:2.5.0] /Users/saikunchala/.gradle/caches/transforms-3/78fb03b70f57e7a893ea3d79f69454fd/transformed/jetified-imagepipeline-native-2.5.0/AndroidManifest.xml:5:5-7:41
MERGED from [com.facebook.soloader:soloader:0.10.1] /Users/saikunchala/.gradle/caches/transforms-3/4c346baed8905fc786ccf697aebc99f4/transformed/jetified-soloader-0.10.1/AndroidManifest.xml:7:5-9:41
MERGED from [com.facebook.soloader:soloader:0.10.1] /Users/saikunchala/.gradle/caches/transforms-3/4c346baed8905fc786ccf697aebc99f4/transformed/jetified-soloader-0.10.1/AndroidManifest.xml:7:5-9:41
MERGED from [com.facebook.fresco:memory-type-ashmem:2.5.0] /Users/saikunchala/.gradle/caches/transforms-3/9429e5f71025a78d24a47489563f8c07/transformed/jetified-memory-type-ashmem-2.5.0/AndroidManifest.xml:5:5-7:41
MERGED from [com.facebook.fresco:memory-type-ashmem:2.5.0] /Users/saikunchala/.gradle/caches/transforms-3/9429e5f71025a78d24a47489563f8c07/transformed/jetified-memory-type-ashmem-2.5.0/AndroidManifest.xml:5:5-7:41
MERGED from [com.facebook.fresco:imagepipeline:2.5.0] /Users/saikunchala/.gradle/caches/transforms-3/5526495f296c8eeaa211326006983f13/transformed/jetified-imagepipeline-2.5.0/AndroidManifest.xml:5:5-7:41
MERGED from [com.facebook.fresco:imagepipeline:2.5.0] /Users/saikunchala/.gradle/caches/transforms-3/5526495f296c8eeaa211326006983f13/transformed/jetified-imagepipeline-2.5.0/AndroidManifest.xml:5:5-7:41
MERGED from [com.facebook.fresco:nativeimagetranscoder:2.5.0] /Users/saikunchala/.gradle/caches/transforms-3/9c9b14e62e6566be253296541a1de4cb/transformed/jetified-nativeimagetranscoder-2.5.0/AndroidManifest.xml:5:5-7:41
MERGED from [com.facebook.fresco:nativeimagetranscoder:2.5.0] /Users/saikunchala/.gradle/caches/transforms-3/9c9b14e62e6566be253296541a1de4cb/transformed/jetified-nativeimagetranscoder-2.5.0/AndroidManifest.xml:5:5-7:41
MERGED from [com.facebook.fresco:imagepipeline-base:2.5.0] /Users/saikunchala/.gradle/caches/transforms-3/a48e403d00b0b0ddc92ec5c061189973/transformed/jetified-imagepipeline-base-2.5.0/AndroidManifest.xml:5:5-7:41
MERGED from [com.facebook.fresco:imagepipeline-base:2.5.0] /Users/saikunchala/.gradle/caches/transforms-3/a48e403d00b0b0ddc92ec5c061189973/transformed/jetified-imagepipeline-base-2.5.0/AndroidManifest.xml:5:5-7:41
MERGED from [com.google.android.material:material:1.1.0] /Users/saikunchala/.gradle/caches/transforms-3/94ecee73d302f93903038c0fd7a3667d/transformed/material-1.1.0/AndroidManifest.xml:20:5-44
MERGED from [com.google.android.material:material:1.1.0] /Users/saikunchala/.gradle/caches/transforms-3/94ecee73d302f93903038c0fd7a3667d/transformed/material-1.1.0/AndroidManifest.xml:20:5-44
MERGED from [androidx.appcompat:appcompat:1.3.0] /Users/saikunchala/.gradle/caches/transforms-3/69a29bf10bcc958f91385ad904e935b2/transformed/appcompat-1.3.0/AndroidManifest.xml:20:5-22:41
MERGED from [androidx.appcompat:appcompat:1.3.0] /Users/saikunchala/.gradle/caches/transforms-3/69a29bf10bcc958f91385ad904e935b2/transformed/appcompat-1.3.0/AndroidManifest.xml:20:5-22:41
MERGED from [androidx.sqlite:sqlite-framework:2.1.0] /Users/saikunchala/.gradle/caches/transforms-3/4cf80188f5b61a29833074cd7956dfba/transformed/sqlite-framework-2.1.0/AndroidManifest.xml:20:5-22:41
MERGED from [androidx.sqlite:sqlite-framework:2.1.0] /Users/saikunchala/.gradle/caches/transforms-3/4cf80188f5b61a29833074cd7956dfba/transformed/sqlite-framework-2.1.0/AndroidManifest.xml:20:5-22:41
MERGED from [androidx.autofill:autofill:1.1.0] /Users/saikunchala/.gradle/caches/transforms-3/be9076cd4fc3ff6ad98aa6fb277b3148/transformed/jetified-autofill-1.1.0/AndroidManifest.xml:20:5-22:41
MERGED from [androidx.autofill:autofill:1.1.0] /Users/saikunchala/.gradle/caches/transforms-3/be9076cd4fc3ff6ad98aa6fb277b3148/transformed/jetified-autofill-1.1.0/AndroidManifest.xml:20:5-22:41
MERGED from [com.facebook.fresco:middleware:2.5.0] /Users/saikunchala/.gradle/caches/transforms-3/2bd3d214b93dcf428cfd42cc8814b2ed/transformed/jetified-middleware-2.5.0/AndroidManifest.xml:5:5-7:41
MERGED from [com.facebook.fresco:middleware:2.5.0] /Users/saikunchala/.gradle/caches/transforms-3/2bd3d214b93dcf428cfd42cc8814b2ed/transformed/jetified-middleware-2.5.0/AndroidManifest.xml:5:5-7:41
MERGED from [com.facebook.fresco:ui-common:2.5.0] /Users/saikunchala/.gradle/caches/transforms-3/78eba43129e0d31bec1d131435c69dcf/transformed/jetified-ui-common-2.5.0/AndroidManifest.xml:5:5-7:41
MERGED from [com.facebook.fresco:ui-common:2.5.0] /Users/saikunchala/.gradle/caches/transforms-3/78eba43129e0d31bec1d131435c69dcf/transformed/jetified-ui-common-2.5.0/AndroidManifest.xml:5:5-7:41
MERGED from [com.google.android.gms:play-services-location:17.0.0] /Users/saikunchala/.gradle/caches/transforms-3/b32c7f2de3aa52c3c8f93cb70e53ae78/transformed/jetified-play-services-location-17.0.0/AndroidManifest.xml:5:5-44
MERGED from [com.google.android.gms:play-services-location:17.0.0] /Users/saikunchala/.gradle/caches/transforms-3/b32c7f2de3aa52c3c8f93cb70e53ae78/transformed/jetified-play-services-location-17.0.0/AndroidManifest.xml:5:5-44
MERGED from [com.google.maps.android:android-maps-utils:0.5] /Users/saikunchala/.gradle/caches/transforms-3/c893a02ebf49573d78d4b94e520a30c1/transformed/jetified-android-maps-utils-0.5/AndroidManifest.xml:5:5-43
MERGED from [com.google.maps.android:android-maps-utils:0.5] /Users/saikunchala/.gradle/caches/transforms-3/c893a02ebf49573d78d4b94e520a30c1/transformed/jetified-android-maps-utils-0.5/AndroidManifest.xml:5:5-43
MERGED from [com.google.android.gms:play-services-tasks:17.0.2] /Users/saikunchala/.gradle/caches/transforms-3/5681fc430407540dc63a76598207c099/transformed/jetified-play-services-tasks-17.0.2/AndroidManifest.xml:5:5-44
MERGED from [com.google.android.gms:play-services-tasks:17.0.2] /Users/saikunchala/.gradle/caches/transforms-3/5681fc430407540dc63a76598207c099/transformed/jetified-play-services-tasks-17.0.2/AndroidManifest.xml:5:5-44
MERGED from [com.google.android.gms:play-services-places-placereport:17.0.0] /Users/saikunchala/.gradle/caches/transforms-3/6b9047c098a9cdc7fb0c5acacddd4446/transformed/jetified-play-services-places-placereport-17.0.0/AndroidManifest.xml:20:5-44
MERGED from [com.google.android.gms:play-services-places-placereport:17.0.0] /Users/saikunchala/.gradle/caches/transforms-3/6b9047c098a9cdc7fb0c5acacddd4446/transformed/jetified-play-services-places-placereport-17.0.0/AndroidManifest.xml:20:5-44
MERGED from [com.google.android.gms:play-services-basement:17.2.1] /Users/saikunchala/.gradle/caches/transforms-3/51419d31498079c1036c51859b5e4d7d/transformed/jetified-play-services-basement-17.2.1/AndroidManifest.xml:20:5-44
MERGED from [com.google.android.gms:play-services-basement:17.2.1] /Users/saikunchala/.gradle/caches/transforms-3/51419d31498079c1036c51859b5e4d7d/transformed/jetified-play-services-basement-17.2.1/AndroidManifest.xml:20:5-44
MERGED from [androidx.coordinatorlayout:coordinatorlayout:1.1.0] /Users/saikunchala/.gradle/caches/transforms-3/530e90c3ee142f7f959c69298c7c5ded/transformed/coordinatorlayout-1.1.0/AndroidManifest.xml:20:5-22:41
MERGED from [androidx.coordinatorlayout:coordinatorlayout:1.1.0] /Users/saikunchala/.gradle/caches/transforms-3/530e90c3ee142f7f959c69298c7c5ded/transformed/coordinatorlayout-1.1.0/AndroidManifest.xml:20:5-22:41
MERGED from [androidx.viewpager2:viewpager2:1.0.0] /Users/saikunchala/.gradle/caches/transforms-3/a19e52b53eb437c1a1e2beb909f23bc9/transformed/jetified-viewpager2-1.0.0/AndroidManifest.xml:20:5-22:41
MERGED from [androidx.viewpager2:viewpager2:1.0.0] /Users/saikunchala/.gradle/caches/transforms-3/a19e52b53eb437c1a1e2beb909f23bc9/transformed/jetified-viewpager2-1.0.0/AndroidManifest.xml:20:5-22:41
MERGED from [androidx.fragment:fragment:1.3.4] /Users/saikunchala/.gradle/caches/transforms-3/d29e2b008fda9570dcb20a45a8889feb/transformed/fragment-1.3.4/AndroidManifest.xml:20:5-22:41
MERGED from [androidx.fragment:fragment:1.3.4] /Users/saikunchala/.gradle/caches/transforms-3/d29e2b008fda9570dcb20a45a8889feb/transformed/fragment-1.3.4/AndroidManifest.xml:20:5-22:41
MERGED from [androidx.activity:activity:1.2.3] /Users/saikunchala/.gradle/caches/transforms-3/2845ad8d4ac5308576a5eb6f72ea168d/transformed/jetified-activity-1.2.3/AndroidManifest.xml:20:5-22:41
MERGED from [androidx.activity:activity:1.2.3] /Users/saikunchala/.gradle/caches/transforms-3/2845ad8d4ac5308576a5eb6f72ea168d/transformed/jetified-activity-1.2.3/AndroidManifest.xml:20:5-22:41
MERGED from [androidx.appcompat:appcompat-resources:1.3.0] /Users/saikunchala/.gradle/caches/transforms-3/262def0251b4f6c882149d15641ff92b/transformed/jetified-appcompat-resources-1.3.0/AndroidManifest.xml:20:5-22:41
MERGED from [androidx.appcompat:appcompat-resources:1.3.0] /Users/saikunchala/.gradle/caches/transforms-3/262def0251b4f6c882149d15641ff92b/transformed/jetified-appcompat-resources-1.3.0/AndroidManifest.xml:20:5-22:41
MERGED from [androidx.drawerlayout:drawerlayout:1.0.0] /Users/saikunchala/.gradle/caches/transforms-3/6fa7b39b5df705c5310dc54c9428ddb2/transformed/drawerlayout-1.0.0/AndroidManifest.xml:20:5-44
MERGED from [androidx.drawerlayout:drawerlayout:1.0.0] /Users/saikunchala/.gradle/caches/transforms-3/6fa7b39b5df705c5310dc54c9428ddb2/transformed/drawerlayout-1.0.0/AndroidManifest.xml:20:5-44
MERGED from [androidx.viewpager:viewpager:1.0.0] /Users/saikunchala/.gradle/caches/transforms-3/09064782b8f9c0d066bcd2a3c8b04255/transformed/viewpager-1.0.0/AndroidManifest.xml:20:5-44
MERGED from [androidx.viewpager:viewpager:1.0.0] /Users/saikunchala/.gradle/caches/transforms-3/09064782b8f9c0d066bcd2a3c8b04255/transformed/viewpager-1.0.0/AndroidManifest.xml:20:5-44
MERGED from [androidx.recyclerview:recyclerview:1.1.0] /Users/saikunchala/.gradle/caches/transforms-3/e1b8018dc60702fe7502f85988cad1c2/transformed/recyclerview-1.1.0/AndroidManifest.xml:20:5-22:41
MERGED from [androidx.recyclerview:recyclerview:1.1.0] /Users/saikunchala/.gradle/caches/transforms-3/e1b8018dc60702fe7502f85988cad1c2/transformed/recyclerview-1.1.0/AndroidManifest.xml:20:5-22:41
MERGED from [androidx.customview:customview:1.0.0] /Users/saikunchala/.gradle/caches/transforms-3/52776be0cd260004f7c3543526e82dde/transformed/customview-1.0.0/AndroidManifest.xml:20:5-44
MERGED from [androidx.customview:customview:1.0.0] /Users/saikunchala/.gradle/caches/transforms-3/52776be0cd260004f7c3543526e82dde/transformed/customview-1.0.0/AndroidManifest.xml:20:5-44
MERGED from [androidx.transition:transition:1.2.0] /Users/saikunchala/.gradle/caches/transforms-3/40ca51d2249b4d506bc1f8236223e39e/transformed/transition-1.2.0/AndroidManifest.xml:20:5-22:41
MERGED from [androidx.transition:transition:1.2.0] /Users/saikunchala/.gradle/caches/transforms-3/40ca51d2249b4d506bc1f8236223e39e/transformed/transition-1.2.0/AndroidManifest.xml:20:5-22:41
MERGED from [androidx.vectordrawable:vectordrawable-animated:1.1.0] /Users/saikunchala/.gradle/caches/transforms-3/57e3d46cd409853c916c88a2c3ae94fd/transformed/vectordrawable-animated-1.1.0/AndroidManifest.xml:20:5-22:41
MERGED from [androidx.vectordrawable:vectordrawable-animated:1.1.0] /Users/saikunchala/.gradle/caches/transforms-3/57e3d46cd409853c916c88a2c3ae94fd/transformed/vectordrawable-animated-1.1.0/AndroidManifest.xml:20:5-22:41
MERGED from [androidx.vectordrawable:vectordrawable:1.1.0] /Users/saikunchala/.gradle/caches/transforms-3/bd931bf16554ef3a5f9f30ddc05589c6/transformed/vectordrawable-1.1.0/AndroidManifest.xml:20:5-22:41
MERGED from [androidx.vectordrawable:vectordrawable:1.1.0] /Users/saikunchala/.gradle/caches/transforms-3/bd931bf16554ef3a5f9f30ddc05589c6/transformed/vectordrawable-1.1.0/AndroidManifest.xml:20:5-22:41
MERGED from [androidx.loader:loader:1.0.0] /Users/saikunchala/.gradle/caches/transforms-3/60d60c30d7e19309c125baad97767572/transformed/loader-1.0.0/AndroidManifest.xml:20:5-44
MERGED from [androidx.loader:loader:1.0.0] /Users/saikunchala/.gradle/caches/transforms-3/60d60c30d7e19309c125baad97767572/transformed/loader-1.0.0/AndroidManifest.xml:20:5-44
MERGED from [androidx.core:core:1.5.0] /Users/saikunchala/.gradle/caches/transforms-3/5646db46e2cfb43e7b3d42f3054c498c/transformed/core-1.5.0/AndroidManifest.xml:20:5-22:41
MERGED from [androidx.core:core:1.5.0] /Users/saikunchala/.gradle/caches/transforms-3/5646db46e2cfb43e7b3d42f3054c498c/transformed/core-1.5.0/AndroidManifest.xml:20:5-22:41
MERGED from [androidx.versionedparcelable:versionedparcelable:1.1.1] /Users/saikunchala/.gradle/caches/transforms-3/233eab6c731cb1ce714d2d0256cc6f18/transformed/versionedparcelable-1.1.1/AndroidManifest.xml:20:5-22:41
MERGED from [androidx.versionedparcelable:versionedparcelable:1.1.1] /Users/saikunchala/.gradle/caches/transforms-3/233eab6c731cb1ce714d2d0256cc6f18/transformed/versionedparcelable-1.1.1/AndroidManifest.xml:20:5-22:41
MERGED from [androidx.interpolator:interpolator:1.0.0] /Users/saikunchala/.gradle/caches/transforms-3/db0f9dfc2cb9e58d20874cad38a46146/transformed/interpolator-1.0.0/AndroidManifest.xml:20:5-44
MERGED from [androidx.interpolator:interpolator:1.0.0] /Users/saikunchala/.gradle/caches/transforms-3/db0f9dfc2cb9e58d20874cad38a46146/transformed/interpolator-1.0.0/AndroidManifest.xml:20:5-44
MERGED from [androidx.cursoradapter:cursoradapter:1.0.0] /Users/saikunchala/.gradle/caches/transforms-3/0be91775d24cf865decfe7ed4d5eda66/transformed/cursoradapter-1.0.0/AndroidManifest.xml:20:5-44
MERGED from [androidx.cursoradapter:cursoradapter:1.0.0] /Users/saikunchala/.gradle/caches/transforms-3/0be91775d24cf865decfe7ed4d5eda66/transformed/cursoradapter-1.0.0/AndroidManifest.xml:20:5-44
MERGED from [androidx.lifecycle:lifecycle-viewmodel-savedstate:2.3.1] /Users/saikunchala/.gradle/caches/transforms-3/5b491d77bde65b71a6cae58aa9211dcf/transformed/jetified-lifecycle-viewmodel-savedstate-2.3.1/AndroidManifest.xml:20:5-22:41
MERGED from [androidx.lifecycle:lifecycle-viewmodel-savedstate:2.3.1] /Users/saikunchala/.gradle/caches/transforms-3/5b491d77bde65b71a6cae58aa9211dcf/transformed/jetified-lifecycle-viewmodel-savedstate-2.3.1/AndroidManifest.xml:20:5-22:41
MERGED from [androidx.savedstate:savedstate:1.1.0] /Users/saikunchala/.gradle/caches/transforms-3/ecf84c0383f3135c8315e19df5cad97b/transformed/jetified-savedstate-1.1.0/AndroidManifest.xml:20:5-22:41
MERGED from [androidx.savedstate:savedstate:1.1.0] /Users/saikunchala/.gradle/caches/transforms-3/ecf84c0383f3135c8315e19df5cad97b/transformed/jetified-savedstate-1.1.0/AndroidManifest.xml:20:5-22:41
MERGED from [androidx.lifecycle:lifecycle-runtime:2.3.1] /Users/saikunchala/.gradle/caches/transforms-3/95eef8d21bb330bbf58c8c1672988eae/transformed/lifecycle-runtime-2.3.1/AndroidManifest.xml:20:5-22:41
MERGED from [androidx.lifecycle:lifecycle-runtime:2.3.1] /Users/saikunchala/.gradle/caches/transforms-3/95eef8d21bb330bbf58c8c1672988eae/transformed/lifecycle-runtime-2.3.1/AndroidManifest.xml:20:5-22:41
MERGED from [androidx.lifecycle:lifecycle-viewmodel:2.3.1] /Users/saikunchala/.gradle/caches/transforms-3/19dbf037054f995da5dedc6be291ab0b/transformed/lifecycle-viewmodel-2.3.1/AndroidManifest.xml:20:5-22:41
MERGED from [androidx.lifecycle:lifecycle-viewmodel:2.3.1] /Users/saikunchala/.gradle/caches/transforms-3/19dbf037054f995da5dedc6be291ab0b/transformed/lifecycle-viewmodel-2.3.1/AndroidManifest.xml:20:5-22:41
MERGED from [androidx.sqlite:sqlite:2.1.0] /Users/saikunchala/.gradle/caches/transforms-3/7a81e244e9259b8a22519a8ac58816e8/transformed/sqlite-2.1.0/AndroidManifest.xml:20:5-22:41
MERGED from [androidx.sqlite:sqlite:2.1.0] /Users/saikunchala/.gradle/caches/transforms-3/7a81e244e9259b8a22519a8ac58816e8/transformed/sqlite-2.1.0/AndroidManifest.xml:20:5-22:41
MERGED from [androidx.cardview:cardview:1.0.0] /Users/saikunchala/.gradle/caches/transforms-3/0e82c8f39b666fb3af71c210912c7fc0/transformed/cardview-1.0.0/AndroidManifest.xml:20:5-44
MERGED from [androidx.cardview:cardview:1.0.0] /Users/saikunchala/.gradle/caches/transforms-3/0e82c8f39b666fb3af71c210912c7fc0/transformed/cardview-1.0.0/AndroidManifest.xml:20:5-44
MERGED from [androidx.tracing:tracing:1.0.0] /Users/saikunchala/.gradle/caches/transforms-3/2b0f8c1393b8d656dc1b4fd4cb42a675/transformed/jetified-tracing-1.0.0/AndroidManifest.xml:20:5-22:41
MERGED from [androidx.tracing:tracing:1.0.0] /Users/saikunchala/.gradle/caches/transforms-3/2b0f8c1393b8d656dc1b4fd4cb42a675/transformed/jetified-tracing-1.0.0/AndroidManifest.xml:20:5-22:41
MERGED from [androidx.lifecycle:lifecycle-livedata:2.0.0] /Users/saikunchala/.gradle/caches/transforms-3/52571f97fa6c48622e09021afd8f199b/transformed/lifecycle-livedata-2.0.0/AndroidManifest.xml:20:5-44
MERGED from [androidx.lifecycle:lifecycle-livedata:2.0.0] /Users/saikunchala/.gradle/caches/transforms-3/52571f97fa6c48622e09021afd8f199b/transformed/lifecycle-livedata-2.0.0/AndroidManifest.xml:20:5-44
MERGED from [androidx.lifecycle:lifecycle-livedata-core:2.3.1] /Users/saikunchala/.gradle/caches/transforms-3/d17db292503a9dfb32fc2010180b8533/transformed/lifecycle-livedata-core-2.3.1/AndroidManifest.xml:20:5-22:41
MERGED from [androidx.lifecycle:lifecycle-livedata-core:2.3.1] /Users/saikunchala/.gradle/caches/transforms-3/d17db292503a9dfb32fc2010180b8533/transformed/lifecycle-livedata-core-2.3.1/AndroidManifest.xml:20:5-22:41
MERGED from [androidx.arch.core:core-runtime:2.1.0] /Users/saikunchala/.gradle/caches/transforms-3/f9626132104606c8a5a0763d03129850/transformed/core-runtime-2.1.0/AndroidManifest.xml:20:5-22:41
MERGED from [androidx.arch.core:core-runtime:2.1.0] /Users/saikunchala/.gradle/caches/transforms-3/f9626132104606c8a5a0763d03129850/transformed/core-runtime-2.1.0/AndroidManifest.xml:20:5-22:41
MERGED from [com.facebook.fresco:fbcore:2.5.0] /Users/saikunchala/.gradle/caches/transforms-3/80cae4052e041bdf30fb0fa272e54409/transformed/jetified-fbcore-2.5.0/AndroidManifest.xml:5:5-7:41
MERGED from [com.facebook.fresco:fbcore:2.5.0] /Users/saikunchala/.gradle/caches/transforms-3/80cae4052e041bdf30fb0fa272e54409/transformed/jetified-fbcore-2.5.0/AndroidManifest.xml:5:5-7:41
MERGED from [androidx.annotation:annotation-experimental:1.0.0] /Users/saikunchala/.gradle/caches/transforms-3/65083a7e9fb6753ce1340588a4e7a976/transformed/jetified-annotation-experimental-1.0.0/AndroidManifest.xml:20:5-22:41
MERGED from [androidx.annotation:annotation-experimental:1.0.0] /Users/saikunchala/.gradle/caches/transforms-3/65083a7e9fb6753ce1340588a4e7a976/transformed/jetified-annotation-experimental-1.0.0/AndroidManifest.xml:20:5-22:41
INJECTED from /Users/saikunchala/Desktop/BrandPulse/BrandPulse/android/app/src/debug/AndroidManifest.xml
INJECTED from /Users/saikunchala/Desktop/BrandPulse/BrandPulse/android/app/src/debug/AndroidManifest.xml
	android:targetSdkVersion
		INJECTED from /Users/saikunchala/Desktop/BrandPulse/BrandPulse/android/app/src/main/AndroidManifest.xml
		INJECTED from /Users/saikunchala/Desktop/BrandPulse/BrandPulse/android/app/src/debug/AndroidManifest.xml
	android:minSdkVersion
		INJECTED from /Users/saikunchala/Desktop/BrandPulse/BrandPulse/android/app/src/main/AndroidManifest.xml
		INJECTED from /Users/saikunchala/Desktop/BrandPulse/BrandPulse/android/app/src/debug/AndroidManifest.xml
uses-permission#android.permission.SYSTEM_ALERT_WINDOW
ADDED from /Users/saikunchala/Desktop/BrandPulse/BrandPulse/android/app/src/debug/AndroidManifest.xml:5:5-77
	android:name
		ADDED from /Users/saikunchala/Desktop/BrandPulse/BrandPulse/android/app/src/debug/AndroidManifest.xml:5:22-75
activity#com.facebook.react.devsupport.DevSettingsActivity
ADDED from /Users/saikunchala/Desktop/BrandPulse/BrandPulse/android/app/src/debug/AndroidManifest.xml:11:9-86
	android:name
		ADDED from /Users/saikunchala/Desktop/BrandPulse/BrandPulse/android/app/src/debug/AndroidManifest.xml:11:19-83
uses-permission#android.permission.ACCESS_WIFI_STATE
ADDED from [com.facebook.flipper:flipper:0.99.0] /Users/saikunchala/.gradle/caches/transforms-3/2f5725507f1929c6ddf8255f0bef77bd/transformed/jetified-flipper-0.99.0/AndroidManifest.xml:16:5-76
	android:name
		ADDED from [com.facebook.flipper:flipper:0.99.0] /Users/saikunchala/.gradle/caches/transforms-3/2f5725507f1929c6ddf8255f0bef77bd/transformed/jetified-flipper-0.99.0/AndroidManifest.xml:16:22-73
uses-permission#android.permission.ACCESS_COARSE_LOCATION
ADDED from [:react-native-maps] /Users/saikunchala/Desktop/BrandPulse/BrandPulse/node_modules/react-native-maps/lib/android/build/intermediates/merged_manifest/debug/AndroidManifest.xml:10:5-81
	android:name
		ADDED from [:react-native-maps] /Users/saikunchala/Desktop/BrandPulse/BrandPulse/node_modules/react-native-maps/lib/android/build/intermediates/merged_manifest/debug/AndroidManifest.xml:10:22-78
uses-permission#android.permission.ACCESS_NETWORK_STATE
ADDED from [com.google.android.gms:play-services-maps:17.0.0] /Users/saikunchala/.gradle/caches/transforms-3/6821bfc07eef432b0f26a0acd5357f0f/transformed/jetified-play-services-maps-17.0.0/AndroidManifest.xml:23:5-79
	android:name
		ADDED from [com.google.android.gms:play-services-maps:17.0.0] /Users/saikunchala/.gradle/caches/transforms-3/6821bfc07eef432b0f26a0acd5357f0f/transformed/jetified-play-services-maps-17.0.0/AndroidManifest.xml:23:22-76
uses-feature#0x00020000
ADDED from [com.google.android.gms:play-services-maps:17.0.0] /Users/saikunchala/.gradle/caches/transforms-3/6821bfc07eef432b0f26a0acd5357f0f/transformed/jetified-play-services-maps-17.0.0/AndroidManifest.xml:26:5-28:35
	android:glEsVersion
		ADDED from [com.google.android.gms:play-services-maps:17.0.0] /Users/saikunchala/.gradle/caches/transforms-3/6821bfc07eef432b0f26a0acd5357f0f/transformed/jetified-play-services-maps-17.0.0/AndroidManifest.xml:27:9-41
	android:required
		ADDED from [com.google.android.gms:play-services-maps:17.0.0] /Users/saikunchala/.gradle/caches/transforms-3/6821bfc07eef432b0f26a0acd5357f0f/transformed/jetified-play-services-maps-17.0.0/AndroidManifest.xml:28:9-32
uses-library#org.apache.http.legacy
ADDED from [com.google.android.gms:play-services-maps:17.0.0] /Users/saikunchala/.gradle/caches/transforms-3/6821bfc07eef432b0f26a0acd5357f0f/transformed/jetified-play-services-maps-17.0.0/AndroidManifest.xml:33:9-35:40
	android:required
		ADDED from [com.google.android.gms:play-services-maps:17.0.0] /Users/saikunchala/.gradle/caches/transforms-3/6821bfc07eef432b0f26a0acd5357f0f/transformed/jetified-play-services-maps-17.0.0/AndroidManifest.xml:35:13-37
	android:name
		ADDED from [com.google.android.gms:play-services-maps:17.0.0] /Users/saikunchala/.gradle/caches/transforms-3/6821bfc07eef432b0f26a0acd5357f0f/transformed/jetified-play-services-maps-17.0.0/AndroidManifest.xml:34:13-50
activity#com.google.android.gms.common.api.GoogleApiActivity
ADDED from [com.google.android.gms:play-services-base:17.2.1] /Users/saikunchala/.gradle/caches/transforms-3/e4c12c0fd148f81f2d365005a63ca53c/transformed/jetified-play-services-base-17.2.1/AndroidManifest.xml:23:9-26:75
	android:exported
		ADDED from [com.google.android.gms:play-services-base:17.2.1] /Users/saikunchala/.gradle/caches/transforms-3/e4c12c0fd148f81f2d365005a63ca53c/transformed/jetified-play-services-base-17.2.1/AndroidManifest.xml:25:13-37
	android:theme
		ADDED from [com.google.android.gms:play-services-base:17.2.1] /Users/saikunchala/.gradle/caches/transforms-3/e4c12c0fd148f81f2d365005a63ca53c/transformed/jetified-play-services-base-17.2.1/AndroidManifest.xml:26:13-72
	android:name
		ADDED from [com.google.android.gms:play-services-base:17.2.1] /Users/saikunchala/.gradle/caches/transforms-3/e4c12c0fd148f81f2d365005a63ca53c/transformed/jetified-play-services-base-17.2.1/AndroidManifest.xml:24:13-79
meta-data#com.google.android.gms.version
ADDED from [com.google.maps.android:android-maps-utils:0.5] /Users/saikunchala/.gradle/caches/transforms-3/c893a02ebf49573d78d4b94e520a30c1/transformed/jetified-android-maps-utils-0.5/AndroidManifest.xml:8:9-10:69
MERGED from [com.google.android.gms:play-services-basement:17.2.1] /Users/saikunchala/.gradle/caches/transforms-3/51419d31498079c1036c51859b5e4d7d/transformed/jetified-play-services-basement-17.2.1/AndroidManifest.xml:23:9-25:69
MERGED from [com.google.android.gms:play-services-basement:17.2.1] /Users/saikunchala/.gradle/caches/transforms-3/51419d31498079c1036c51859b5e4d7d/transformed/jetified-play-services-basement-17.2.1/AndroidManifest.xml:23:9-25:69
	android:value
		ADDED from [com.google.maps.android:android-maps-utils:0.5] /Users/saikunchala/.gradle/caches/transforms-3/c893a02ebf49573d78d4b94e520a30c1/transformed/jetified-android-maps-utils-0.5/AndroidManifest.xml:10:13-66
	android:name
		ADDED from [com.google.maps.android:android-maps-utils:0.5] /Users/saikunchala/.gradle/caches/transforms-3/c893a02ebf49573d78d4b94e520a30c1/transformed/jetified-android-maps-utils-0.5/AndroidManifest.xml:9:13-58
