<svg xmlns="http://www.w3.org/2000/svg" width="24" height="24" viewBox="0 0 24 24">
  <g id="Group_5920" data-name="Group 5920" transform="translate(-80 -76)">
    <g id="Group_5872" data-name="Group 5872" transform="translate(80 76)">
      <rect id="Rectangle_2274" data-name="Rectangle 2274" width="24" height="24" fill="none"/>
    </g>
    <path id="Icon_ionic-md-arrow-back" data-name="Icon ionic-md-arrow-back" d="M21.977,12.977H9.827l5.6-5.6-1.45-1.4-8,8,8,8,1.4-1.4-5.55-5.6h12.15Z" transform="translate(78.023 74.023)" opacity="0.6"/>
  </g>
</svg>
